apm_mpi
tempseq 1.197179
nbprocs time speedup
1, 1.197179, 1.00000000000000000000
2, 0.603445, 1.98390739835444820986
3, 0.390853, 3.06299043374363251657
4, 0.364926, 3.28060757523443109013
5, 0.265387, 4.51106874112145658981
6, 0.239338, 5.00204313564916561515
