apm_mpi
tempseq 1.170023
nbprocs time speedup
1, 1.170023, 1.00000000000000000000
2, 0.596703, 1.96081300077257865303
3, 0.393075, 2.97658970934300069961
4, 0.307149, 3.80930102328185994419
5, 0.292988, 3.99341611260529441478
6, 0.246897, 4.73891136789835437449
