apm_openmp
tempseq 1.516421
nbprocs time speedup
1, 1.516421, 1.00000000000000000000
2, 0.847046, 1.79024633845151266873
3, 0.593684, 2.55425613626104122731
4, 0.452686, 3.34982968326831401898
5, 0.375390, 4.03958816164522230213
6, 0.318004, 4.76855951497465440686
7, 0.270446, 5.60711195580633472116
8, 0.250864, 6.04479319471905095988
9, 0.239085, 6.34260200347156868895
10, 0.217862, 6.96046579945102863280
11, 0.199281, 7.60946101233935999919
12, 0.187923, 8.06937415856494415265
13, 0.180943, 8.38065578662893839496
14, 0.175818, 8.62494738877703079320
15, 0.178538, 8.49354759210924285026
16, 0.174832, 8.67358950306580031115
17, 0.174697, 8.68029216300222671253
18, 0.172080, 8.81230241748024174802
19, 0.174694, 8.68044122866269018970
20, 0.171731, 8.83021120240375936784
21, 0.169748, 8.93336593067370455027
22, 0.179941, 8.42732340044792459750
23, 0.166797, 9.09141651228739126003
24, 0.157892, 9.60416613887974058217
