apm_openmp
tempseq 1.478345
nbprocs time speedup
1, 1.478345, 1.00000000000000000000
2, 0.808868, 1.82767151129726976465
3, 0.566773, 2.60835466756532156612
4, 0.440270, 3.35781452290639834646
5, 0.353804, 4.17842929983832856609
6, 0.303442, 4.87191951015350544749
7, 0.265129, 5.57594604890449554745
8, 0.238814, 6.19036153659333204920
9, 0.230826, 6.40458613847660142271
10, 0.212211, 6.96639194009735593348
11, 0.191577, 7.71671442814116517118
12, 0.178096, 8.30083213547749528344
13, 0.168245, 8.78685845047401111474
14, 0.159694, 9.25736095282227259634
15, 0.150077, 9.85057670395863456758
16, 0.143892, 10.27399021488338476079
17, 0.138130, 10.70256280315644682545
18, 0.135680, 10.89582104952830188679
19, 0.148582, 9.94969107967317710086
20, 0.129457, 11.41958333655190526584
21, 0.126954, 11.64472958709453817918
22, 0.118249, 12.50196618998892168221
23, 0.130305, 11.34526687387283680595
24, 0.126695, 11.66853466987647499901
