apm_openmp
tempseq 1.445916
nbprocs time speedup
1, 1.445916, 1.00000000000000000000
2, 0.749470, 1.92925133761191241810
3, 0.530435, 2.72590609594012461470
4, 0.409735, 3.52890526803909844167
5, 0.324199, 4.45996440457866927411
6, 0.283594, 5.09854228227677595435
7, 0.248158, 5.82659434714979972436
8, 0.223538, 6.46832305916667412252
9, 0.214337, 6.74599345889883687837
10, 0.197185, 7.33278900524887795724
11, 0.175679, 8.23044302392431650908
12, 0.165455, 8.73902873893203590100
13, 0.149692, 9.65927370868182668412
14, 0.140431, 10.29627361480015096381
15, 0.128409, 11.26023876831063243230
16, 0.127432, 11.34656915060581329650
17, 0.115994, 12.46543786747590392606
18, 0.100879, 14.33317142319015850672
19, 0.109140, 13.24826827927432655305
20, 0.102303, 14.13366176944957625876
21, 0.107138, 13.49582781086075902107
22, 0.104807, 13.79598690927132729684
23, 0.095737, 15.10300092963013255063
24, 0.108877, 13.28027039686986232170
