apm_openmp
tempseq 1.498166
nbprocs time speedup
1, 1.498166, 1.00000000000000000000
2, 0.882760, 1.69713852009606234990
3, 0.614906, 2.43641467151076749942
4, 0.476380, 3.14489693102145346152
5, 0.392344, 3.81850111126970209815
6, 0.334971, 4.47252448719441384478
7, 0.294579, 5.08578683477097824352
8, 0.274146, 5.46484719820825399604
9, 0.263457, 5.68656744743924055918
10, 0.256386, 5.84340018565756320547
11, 0.262769, 5.70145641228607636365
12, 0.247984, 6.04138170204529324472
13, 0.316419, 4.73475360202769113106
14, 0.315684, 4.74577742299261286603
15, 0.307412, 4.87347923958726399750
16, 0.320879, 4.66894374515004098117
17, 0.321201, 4.66426318722544450359
18, 0.314173, 4.76860201226712671044
19, 0.317993, 4.71131754472582729808
20, 0.322217, 4.64955604452899753892
21, 0.324943, 4.61055015802771563012
22, 0.300299, 4.98891438199927405685
23, 0.307997, 4.86422270346789092101
24, 0.312751, 4.79028364417699703598
