apm_openmp
tempseq 1.449262
nbprocs time speedup
1, 1.449262, 1.00000000000000000000
2, 0.764980, 1.89450966038327799419
3, 0.582562, 2.48773864412714869833
4, 0.405030, 3.57815964249561760857
5, 0.328236, 4.41530484163833339426
6, 0.282753, 5.12554066623519467521
7, 0.236877, 6.11820480671403302135
8, 0.222739, 6.50654802257350531339
9, 0.212081, 6.83353058501233019459
10, 0.194317, 7.45823576938713545392
11, 0.224459, 6.45668919490864701348
12, 0.168038, 8.62460871945631345290
13, 0.156014, 9.28930736985142359019
14, 0.145271, 9.97626504945928643707
15, 0.278722, 5.19966848687939954506
16, 0.196227, 7.38564010049585429120
17, 0.155032, 9.34814747923009443211
18, 0.235005, 6.16694112891215080530
19, 0.236411, 6.13026466619573539302
20, 0.190096, 7.62384269000925847992
21, 0.206133, 7.03071318032532394133
22, 0.146785, 9.87336580713288142521
23, 0.233387, 6.20969462737856007404
24, 0.260838, 5.55617663070564871682
