apm_openmp
tempseq 1.451518
nbprocs time speedup
1, 1.451518, 1.00000000000000000000
2, 0.753111, 1.92736263313110550768
3, 0.531185, 2.73260351854815177386
4, 0.403552, 3.59685492823725319165
5, 0.333198, 4.35632266700280313807
6, 0.281210, 5.16168699548380214074
7, 0.248089, 5.85079548065412009399
8, 0.225677, 6.43183842394218285425
9, 0.214278, 6.77399453046976357815
10, 0.195001, 7.44364387874933974697
11, 0.177493, 8.17788870547007487619
12, 0.166950, 8.69432764300688828990
13, 0.320578, 4.52781538346361883847
14, 0.212304, 6.83697904891099555354
15, 0.132289, 10.97232574136927484522
16, 0.207214, 7.00492244732498769388
17, 0.168456, 8.61660018046255402004
18, 0.261731, 5.54583904848871551325
19, 0.222664, 6.51887148349082024934
20, 0.205656, 7.05799004162290426732
21, 0.285078, 5.09165210924729372312
22, 0.147237, 9.85837798922825105102
23, 0.217648, 6.66910791737116812467
24, 0.238723, 6.08034416457567976273
