apm_openmp_mpi
tempseq 0.265379
nbprocs time speedup
1, 0.265379, 1.00000000000000000000
2, 0.123762, 2.14426883857726927489
3, 0.089083, 2.97900834053635373752
4, 0.096518, 2.74952858534159431401
5, 0.097317, 2.72695418066730375987
6, 0.101900, 2.60430814524043179587
