apm_openmp
tempseq 1.448173
nbprocs time speedup
1, 1.448173, 1.00000000000000000000
2, 0.761323, 1.90217949543098001767
3, 0.520868, 2.78030710275924034496
4, 0.406542, 3.56217315800089535644
5, 0.335066, 4.32205296866885926951
6, 0.283617, 5.10608672963891445153
7, 0.245532, 5.89810289493833797631
8, 0.224031, 6.46416344166655507496
9, 0.202784, 7.14145593340697490926
10, 0.193686, 7.47691108288673419865
11, 0.178794, 8.09967336711522758034
12, 0.164691, 8.79327346363796443035
13, 0.151751, 9.54308703072796884369
14, 0.140525, 10.30544742928304572140
15, 0.123360, 11.73940499351491569390
16, 0.124974, 11.58779426120633091683
17, 0.118362, 12.23511768979909092445
18, 0.101419, 14.27910943708772517970
19, 0.110729, 13.07853407869663773717
20, 0.122382, 11.83321893742543838146
21, 0.102915, 14.07154447845309235777
22, 0.091607, 15.80854083203248660036
23, 0.095404, 15.17937403043897530501
24, 0.092819, 15.60211810081987524106
