apm_openmp
tempseq 1.479609
nbprocs time speedup
1, 1.479609, 1.00000000000000000000
2, 0.757263, 1.95389052416399586405
3, 0.532730, 2.77740881872618399564
4, 0.409270, 3.61523932856060791164
5, 0.337413, 4.38515706270949844848
6, 0.284257, 5.20518052325888192727
7, 0.246014, 6.01432845285227669970
8, 0.224530, 6.58980537121988153030
9, 0.214916, 6.88459211971188743509
10, 0.196265, 7.53883270068529793901
11, 0.177544, 8.33375951876717884017
12, 0.167586, 8.82895349253517596935
13, 0.155467, 9.51719014324583352094
14, 0.136432, 10.84502902544857511434
15, 0.128688, 11.49764546810891458411
16, 0.118260, 12.51149162861491628614
17, 0.118817, 12.45283924017606908102
18, 0.115683, 12.79020253624128004979
19, 0.104214, 14.19779492198744890321
20, 0.100262, 14.75742554507191159162
21, 0.102082, 14.49431829313688995121
22, 0.103715, 14.26610422793231451574
23, 0.091701, 16.13514574541171851997
24, 0.092131, 16.05983870792675646633
