apm_openmp
tempseq 1.476923
nbprocs time speedup
1, 1.476923, 1.00000000000000000000
2, 0.775417, 1.90468225483836438974
3, 0.545641, 2.70676690351348230796
4, 0.417955, 3.53368903350839205177
5, 0.343279, 4.30239834070828684539
6, 0.291811, 5.06123141348338479358
7, 0.255424, 5.78224050989726885492
8, 0.232174, 6.36127645645076537424
9, 0.221639, 6.66364222903008946981
10, 0.199924, 7.38742222044376863208
11, 0.238141, 6.20188459778030662506
12, 0.168790, 8.75006220747674625274
13, 0.159900, 9.23654158849280800500
14, 0.229854, 6.42548313277123739417
15, 0.138860, 10.63605790004320898746
16, 0.132864, 11.11605099951830443159
17, 0.125868, 11.73390377220580290463
18, 0.119377, 12.37192256464813154962
19, 0.116278, 12.70165465522282805001
20, 0.138863, 10.63582811836126253933
21, 0.111698, 13.22246593493169080914
22, 0.102162, 14.45667665080949863941
23, 0.099443, 14.85195539153082670474
24, 0.098915, 14.93123388768134256685
