apm_openmp_mpi
tempseq 0.242411
nbprocs time speedup
1, 0.242411, 1.00000000000000000000
2, 0.126138, 1.92179200558118885664
3, 0.085205, 2.84503256851123760342
4, 0.124200, 1.95177938808373590982
5, 0.114899, 2.10977467166816073246
6, 0.101607, 2.38577066540691094117
