apm_openmp
tempseq 1.453987
nbprocs time speedup
1, 1.453987, 1.00000000000000000000
2, 0.762597, 1.90662564893384054749
3, 0.533915, 2.72325557438918179860
4, 0.410432, 3.54257708950569156401
5, 0.345502, 4.20833164496877007947
6, 0.284758, 5.10604443070958498093
7, 0.250996, 5.79286920907106089340
8, 0.226117, 6.43024186593666110907
9, 0.221073, 6.57695421874222541875
10, 0.197547, 7.36020795051304246584
11, 0.180739, 8.04467768439573086052
12, 0.166677, 8.72338115036867714201
13, 0.157881, 9.20938554987617256034
14, 0.147638, 9.84832495698939297470
15, 0.138852, 10.47148762711376141503
16, 0.118209, 12.30013789136190983766
17, 0.122974, 11.82353180347065233301
18, 0.117364, 12.38869670427047476227
19, 0.112341, 12.94262112674802609910
20, 0.134607, 10.80171907850260387647
21, 0.103650, 14.02785335262904003859
22, 0.100720, 14.43593129467831612390
23, 0.095602, 15.20875086295265789418
24, 0.094457, 15.39311009242300729432
