apm_openmp
tempseq 1.490533
nbprocs time speedup
1, 1.490533, 1.00000000000000000000
2, 0.771999, 1.93074472894394940926
3, 0.545761, 2.73110940503260584761
4, 0.420859, 3.54164458880527682668
5, 0.345394, 4.31545713011806806140
6, 0.289916, 5.14125815753528608286
7, 0.254265, 5.86212416179969716634
8, 0.226681, 6.57546508088459112144
9, 0.220733, 6.75265139331228225956
10, 0.202220, 7.37084858075363465532
11, 0.183226, 8.13494263914509949461
12, 0.166807, 8.93567416235529684006
13, 0.159923, 9.32031665238896218805
14, 0.151684, 9.82656707365312096199
15, 0.139671, 10.67174288148577729091
16, 0.129638, 11.49765500856230426263
17, 0.123794, 12.04043006930869024346
18, 0.124879, 11.93581787169980541163
19, 0.140215, 10.63033912206254680312
20, 0.110956, 13.43355023612963697321
21, 0.132066, 11.28627352990171580876
22, 0.102321, 14.56722471437925743493
23, 0.098007, 15.20843409144244798840
24, 0.144973, 10.28145240837949135356
