apm_openmp_mpi
tempseq 1.389427
nbprocs time speedup
1, 1.389427, 1.00000000000000000000
2, 0.705060, 1.97065072476101324709
3, 0.486842, 2.85395877923433064526
4, 0.364686, 3.80992689601465370208
5, 0.306946, 4.52661705967824959439
6, 0.443054, 3.13602179418310183408
7, 0.341722, 4.06595712304153668771
8, 0.332405, 4.17992208300115822565
9, 0.309086, 4.49527639556628252331
10, 0.262652, 5.28999208077608394377
11, 0.240877, 5.76820119812186302552
12, 0.246240, 5.64257228719948018193
13, 0.170977, 8.12639711774098270527
14, 0.162095, 8.57168327215521761929
15, 0.157869, 8.80113891897712660496
16, 0.165118, 8.41475187441708354025
17, 0.184960, 7.51204044117647058823
18, 0.170291, 8.15913348327275076193
19, 0.170981, 8.12620700545674665606
20, 0.166070, 8.36651412055157463720
21, 0.152127, 9.13333596271536282185
22, 0.151865, 9.14909294439140025680
23, 0.138914, 10.00206602646241559526
24, 0.142059, 9.78063339879909051872
