apm_openmp_mpi
tempseq 1.389472
nbprocs time speedup
1, 1.389472, 1.00000000000000000000
2, 0.715144, 1.94292617990222948105
3, 0.483455, 2.87404618837327155578
4, 0.362253, 3.83563973245218121036
5, 0.310767, 4.47110536189492449326
6, 0.259960, 5.34494537621172488075
7, 0.377410, 3.68159826183725921411
8, 0.259306, 5.35842595234973351947
9, 0.301362, 4.61064102308851149116
10, 0.286666, 4.84700662094563010611
11, 0.192929, 7.20198622291101907955
12, 0.255800, 5.43186864738076622361
13, 0.227698, 6.10225825435445194951
14, 0.215552, 6.44611045130641330166
15, 0.203022, 6.84394794652796248682
16, 0.197084, 7.05015120456252156440
17, 0.183131, 7.58731181503950723798
18, 0.139830, 9.93686619466495029678
19, 0.164300, 8.45692026780279975654
20, 0.160778, 8.64217741233253305800
21, 0.152073, 9.13687505342828773023
22, 0.153635, 9.04398086373547694210
23, 0.148164, 9.37793256121594989336
24, 0.140107, 9.91722041011512629633
